<?xml version="1.0" encoding="UTF-8" standalone="no"?>
<!-- Created with Inkscape (http://www.inkscape.org/) -->

<svg
   width="512"
   height="512"
   viewBox="0 0 512 512"
   version="1.1"
   id="svg1"
   xml:space="preserve"
   inkscape:version="1.3.2 (091e20ef0f, 2023-11-25)"
   sodipodi:docname="plutonit-figurative.inkscape.svg"
   inkscape:export-filename="../plutonit-figurative.svg"
   inkscape:export-xdpi="96"
   inkscape:export-ydpi="96"
   xmlns:inkscape="http://www.inkscape.org/namespaces/inkscape"
   xmlns:sodipodi="http://sodipodi.sourceforge.net/DTD/sodipodi-0.dtd"
   xmlns="http://www.w3.org/2000/svg"
   xmlns:svg="http://www.w3.org/2000/svg"><sodipodi:namedview
     id="namedview1"
     pagecolor="#505050"
     bordercolor="#eeeeee"
     borderopacity="1"
     inkscape:showpageshadow="0"
     inkscape:pageopacity="0"
     inkscape:pagecheckerboard="0"
     inkscape:deskcolor="#505050"
     inkscape:document-units="px"
     inkscape:zoom="1.4142136"
     inkscape:cx="231.57746"
     inkscape:cy="272.58966"
     inkscape:window-width="2560"
     inkscape:window-height="1371"
     inkscape:window-x="0"
     inkscape:window-y="0"
     inkscape:window-maximized="1"
     inkscape:current-layer="svg1" /><defs
     id="defs1"><linearGradient
       id="swatch30"
       inkscape:swatch="solid"><stop
         style="stop-color:#777777;stop-opacity:1;"
         offset="0"
         id="stop30" /></linearGradient></defs><path
     style="display:inline;fill:#424242;fill-opacity:1;stroke:none;stroke-width:1.15021;stroke-linecap:round;stroke-linejoin:round;stroke-dasharray:none;stroke-opacity:1"
     d="M 145.123 252.377 L 174.383 477.658 L 354.963 470.832 L 340.253 189.165 Z"
     id="path10"
     inkscape:label="bottom center"
     sodipodi:nodetypes="ccccc"
     sodipodi:insensitive="true" /><path
     style="display:inline;fill:#6a6a6a;fill-opacity:1;stroke:none;stroke-width:1.15021;stroke-linecap:round;stroke-linejoin:round;stroke-dasharray:none;stroke-opacity:1"
     d="M 311.662 351.943 L 354.963 470.832 L 512 359.112 L 469.735 239.277 C 391.925 242.393 340.204 281.278 311.662 351.943 Z"
     id="path12"
     inkscape:label="bottom right"
     sodipodi:nodetypes="ccccc"
     sodipodi:insensitive="true" /><path
     style="display:inline;fill:#4d4d4d;fill-opacity:1;stroke:none;stroke-width:1.15021;stroke-linecap:round;stroke-linejoin:round;stroke-dasharray:none;stroke-opacity:1"
     d="M 217.819 269.958 L 311.637 351.932 L 469.735 239.277 L 462.688 108.372 C 356.085 129.172 272.787 180.816 217.819 269.958 Z"
     id="path11"
     inkscape:label="right"
     sodipodi:nodetypes="ccccc"
     sodipodi:insensitive="true" /><path
     style="display:inline;fill:#2f2f2f;fill-opacity:1;stroke:none;stroke-width:1.15021;stroke-linecap:round;stroke-linejoin:round;stroke-dasharray:none;stroke-opacity:1"
     d="M 19.2193 351.106 L 174.383 477.658 L 217.819 269.958 C 166.173 197.967 88.9227 192.47 -2.75981e-05 217.282 Z"
     id="path7"
     inkscape:label="left"
     sodipodi:nodetypes="ccccc"
     sodipodi:insensitive="true" /><path
     style="display:inline;fill:#808080;fill-opacity:1;stroke:none;stroke-width:1.15021;stroke-linecap:round;stroke-linejoin:round;stroke-dasharray:none;stroke-opacity:1"
     d="M -2.75981e-05 217.282 L 208.566 34.3424 C 226.52 125.535 226.089 193.097 217.819 269.958 Z"
     id="path6"
     inkscape:label="top left"
     sodipodi:nodetypes="cccc"
     sodipodi:insensitive="true" /><path
     style="display:inline;fill:#868686;fill-opacity:1;stroke:none;stroke-width:1.15021;stroke-linecap:round;stroke-linejoin:round;stroke-dasharray:none;stroke-opacity:1"
     d="M 208.566 34.3424 L 462.688 108.372 L 217.819 269.958 Z"
     id="path13"
     inkscape:label="top right"
     sodipodi:nodetypes="cccc"
     sodipodi:insensitive="true" /></svg>
